%YAML 1.1
%TAG !u! tag:unity3d.com,2011:
--- !u!221 &22100000
AnimatorOverrideController:
  m_ObjectHideFlags: 0
  m_CorrespondingSourceObject: {fileID: 0}
  m_PrefabInstance: {fileID: 0}
  m_PrefabAsset: {fileID: 0}
  m_Name: Customer3
  m_Controller: {fileID: 9100000, guid: 157c00b203cd09546be44e48d3b857db, type: 2}
  m_Clips:
  - m_OriginalClip: {fileID: -923852786569919836, guid: 8d3a68a584c28ee4da860b68fe02b1de,
      type: 3}
    m_OverrideClip: {fileID: -5913978943142729594, guid: 6f3d4fc7b3e446f45a0e2dc0c235ba6e,
      type: 3}
  - m_OriginalClip: {fileID: -8945691123924629249, guid: 8d3a68a584c28ee4da860b68fe02b1de,
      type: 3}
    m_OverrideClip: {fileID: -8945691123924629249, guid: 6f3d4fc7b3e446f45a0e2dc0c235ba6e,
      type: 3}
